{
  "title": "Ecare Informatie beveiliging Quizzz",
  "summary": "‘Een raamwerk van beleidsuitgangspunten met betrekking tot de vertrouwelijkheid, integriteit en beschikbaarheid van de informatievoorziening, waarbinnen een evenwichtig (doeltreffend en doelmatig) stelsel van onderling samenhangende maatregelen ontwikkeld wordt, om de informatievoorziening te beschermen tegen interne en externe bedreigingen’.",
  "questions": [
    {
      "question": "Wachtwoorden worden gebruikt om toegang te krijgen tot onlinediensten (zoals e-mail, PUUR, Ecare wiki, Yammer, etc). Ze zorgen er ook voor dat anderen geen toegang kunnen krijgen tot uw persoonlijke accounts. Maar omdat we van zoveel verschillende diensten gebruik maken, is het helaas lastig om ieder wachtwoord te onthouden. Welke oplossing vindt oplossing gebruik jij?",
      "answers": [
        {
          "text": "Ik gebruik gewoon telkens hetzelfde wachtwoord, het maakt mij niet zoveel uit dat mijn persoonlijke gegevens op straat komen te liggen",
          "isCorrect": false,
          "hasBeenChosen": false
        },
        {
          "text": "Ik gebruik een wachtwoord manager zoals Keepass, OnePass of Lastpass, dan hoef ik nog maar een wachtwoord te onthouden en de manager doet de rest.",
          "isCorrect": true,
          "hasBeenChosen": false
        },
        {
          "text": "Ik schrijf al mijn wachtwoorden op in een text bestand zodat ik ze niet hoef te onthouden en toch allemaal tot mijn beschikking heb.",
          "isCorrect": false,
          "hasBeenChosen": false
        },
        {
          "text": "Ik onthoud ze gewoon allemaal ik heb een visueel super geheugen",
          "isCorrect": false,
          "hasBeenChosen": false
        }
      ],     
      "explanation": "Verschillende wachtwoorden gebruiken voor iedere dienst, en ze niet in een bestand op te slaan, is de juiste aanpak om uw accounts te beveiligen. Kiest u namelijk hetzelfde wachtwoord voor al uw diensten, en weet een kwaadwillende gebruiker achter uw wachtwoord van de ene dienst te komen, dan heeft hij of zij meteen ook toegang tot al uw accounts bij al uw diensten. Het is bovendien belangrijk om sterke wachtwoorden te kiezen die voldoende lang zijn (dat wil zeggen, minstens 8 tekens), samengesteld uit zowel hoofd- als kleine letters, maar die ook cijfers en niet-alfanumerieke tekens bevatten. zie ook: https://www.consumentenbond.nl/veilig-internetten/test-wachtwoordmanagers"
    },{
      "question": "Bij het lezen van uw e-mail komt u een mail tegen van uw bank met de vraag om een nieuwe bankpas aan te vragen dmv een bijgeleverde link, hoe controleer je of deze mail geen phishing mail is.",
      "answers": [
        {
          "text": "Phishing mails zijn vaak in slecht Nederlands opgesteld en aan de layout van de mail of website waar je heen wordt geleid kan je vaak meteen zien dat het om een nep bericht gaat.",
          "isCorrect": false,
          "hasBeenChosen": false
        },
        {
          "text": "Als mijn volledige naam boven het mail bericht staat, ga ik ervan uit dat het bericht juist is.",
          "isCorrect": false,
          "hasBeenChosen": false
        },
        {
          "text": "Het adres van de pagina waar ik heen wordt gestuurd moet overeenkomen met het internet adres van mijn bank.",
          "isCorrect": true,
          "hasBeenChosen": false
        }
      ],     
      "explanation": "Steeds meer mensen ontvangen nepmails (phishingmails) waarin criminelen zich voordoen als een overheidsinstelling, bank of bedrijf. Nog heel wat mensen tuinen in de dringende verzoeken in deze nepmails om op linkjes of bijlages te klikken, gegevens in te vullen of betalingen te doen. De nepmails ogen dan ook steeds geloofwaardiger. Test uw kennis over valse e-mails: https://www.fraudehelpdesk.nl/kennis/test-je-kennis/test-uw-kennis-over-valse-e-mails/"
    },{
      "question": "Je computer is geinfecteerd met randsomeware, wat doe je?",
      "answers": [
        {
          "text": "Meteen betalen, anders gaat de prijs omhoog.",
          "isCorrect": false,
          "hasBeenChosen": false
        },
        {
          "text": "Opzoeken wat dat is 'Randsomeware'.",
          "isCorrect": false,
          "hasBeenChosen": false
        },
        {
          "text": "Ik laat mijn computer opnieuw installeren, al mijn data had ik toch gesynced met mijn onedrive map dus er is niks weg.",
          "isCorrect": true,
          "hasBeenChosen": false
        },
        {
          "text": "Ik neem contact op met de AP, dit is een datalek.",
          "isCorrect": false,
          "hasBeenChosen": false
        }
      ],     
      "explanation": "Ransomware is Engels voor gijzelsoftware. Hiermee blokkeren criminelen uw computer of versleutelen zij een of meerdere bestanden op uw computer. Vaak moet u een bedrag in virtuele valuta, zoals bitcoins, betalen om uw computer of bestanden weer terug te krijgen. Gebruik een antivirusprogramma’s en installeer updates van uw software en besturingssysteem. Maak een backup van de informatie op uw computer, onedrive is hier heel geschikt voor."
    },{
      "question": "Wat zijn de drie logische principes van Privacy by Design ?",
      "answers": [
        {
          "text": "De privacy gevoelige informatie die Ecare beheerd is van de klant, wij zijn dus niet verantwoordelijk voor informatie beveiliging.",
          "isCorrect": false,
          "hasBeenChosen": false
        },
        {
          "text": "Scheidt privacy gevoelige informatie van niet privacy gevoelige informatie.",
          "isCorrect": true,
          "hasBeenChosen": false
        },
        {
          "text": "Privacy gevoelige informatie die je niet hebt, hoef je ook niet te beveiligen.",
          "isCorrect": true,
          "hasBeenChosen": false
        },
        {
          "text": "Verstuur privacy gevoelige informatie alleen via beveiligde verbindingen zoals https.",
          "isCorrect": false,
          "hasBeenChosen": false
        },
        {
          "text": "Als je je privacy gevoelige informatie niet kwijt raakt heb je ook geen datalek.",
          "isCorrect": false,
          "hasBeenChosen": false
        },
        {
          "text": "Sleep niet met privacy gevoelige informatie",
          "isCorrect": true,
          "hasBeenChosen": false
        }
      ],     
      "explanation": "..."
    },{
      "question": "Van welk type datalek waren de meeste registraties in 2018?",
      "answers": [
        {
          "text": "Hacking, malware en/of phishing",
          "isCorrect": false,
          "hasBeenChosen": false
        },
        {
          "text": "Persoonsgegevens verstuurd of afgegeven aan verkeerde ontvanger",
          "isCorrect": true,
          "hasBeenChosen": false
        },
        {
          "text": "Persoonsgegevens van verkeerde klant getoond in klantportaal",
          "isCorrect": false,
          "hasBeenChosen": false
        },
        {
          "text": "Brief of postpakket kwijtgeraakt of geopend retour ontvangen",
          "isCorrect": false,
          "hasBeenChosen": false
        }
      ],     
      "explanation": "In 2018 ontving de AP in totaal 20.881 meldingen van datalekken. Ten opzichte van voorgaande jaren is het aantal meldingen fors gestegen. In 2016 ontving de AP 5.849 meldingen van datalekken en in 2017 waren dat er 10.009. In 2018 is het aantal ten opzichte van 2017 dus ruim verdubbeld. In de meerderheid van de gevallen betreft het datalek het versturen of afgeven van persoonsgegevens aan een verkeerde ontvanger. Hierbij gaat het met name om poststukken met gevoelige gegevens die bij de verkeerde persoon terechtkomen en geopend retour worden gestuurd (de onjuiste ontvanger heeft kennis genomen van de inhoud van de brief). Ook kan het gaan om een e-mail met daarin gevoelige persoonsgegevens die wordt verzonden naar de verkeerde ontvanger. Bijvoorbeeld door een typefout of omdat er in het e-mailprogramma een verkeerde geadresseerde wordt geselecteerd. Daarnaast komt het voor dat personen hun eigen gegevens opvragen bij organisaties maar door een administratieve fout vervolgens ook persoonsgegevens van anderen ontvangen. De meest gelekte gegevens zijn naam, geslacht en contactgegevens. Daarnaast zijn in 2018 ruim 6.000 meldingen ontvangen over gelekte medische gegevens (6.526) en het BSN (6.056). Een datalek met burgerservicenummers (BSN) komt met name voor in de zorg (37%) en in de sector openbaar bestuur (33%). zie ook: https://autoriteitpersoonsgegevens.nl/sites/default/files/atoms/files/jaarrapportage_meldplicht_datalekken_2018.pdf"
    },{
      "question": "Een salaris export gaat fout, het resulteerde bestand beland bij de verkeerde klant. Wat doet Ecare?",
      "answers": [
        {
          "text": "Niks, het zijn toch niet onze gegevens, wij maken alleen de software.",
          "isCorrect": false,
          "hasBeenChosen": false
        },
        {
          "text": "Binnen 72 uur het AP op de hoogte stellen waarbij we melden welke data er precies verloren is gegaan, wie er is gedupeerd,  welke maatregelen we nemen om de schade zoveel mogelijk te voorkomen en welke maatregelen we nemen om een soortgelijk voorval in de toekomst te voorkomen.",
          "isCorrect": false,
          "hasBeenChosen": false
        },
        {
          "text": "Eerst We vragen de klant die het bestand heeft ontvangen om dit bestand meteen te vernietigen en informeren de klant van wie de salaris gegevens zijn. De informatie genoemd bij antwoord B melden we aan de klant.",
          "isCorrect": true,
          "hasBeenChosen": false
        },
        {
          "text": "We ontslaan team Basis en hevelen het werk over naar India",
          "isCorrect": false,
          "hasBeenChosen": false
        }
      ],     
      "explanation": "..."
    },{
      "question": "...",
      "answers": [
        {
          "text": "...",
          "isCorrect": false,
          "hasBeenChosen": false
        },
        {
          "text": "...",
          "isCorrect": false,
          "hasBeenChosen": false
        },
        {
          "text": "...",
          "isCorrect": true,
          "hasBeenChosen": false
        }
      ],     
      "explanation": "..."
    }
  ]
}